,DriveTime,ChargeTime,stops,overhead,route
0,448.32094630930436,108.42094630930434,6,0,0
1,436.87592116323196,81.87592116323194,7,5,0
2,393.4175135509602,74.31751355096021,3,10,0
3,386.02549585905666,74.52549585905666,3,15,0
4,388.88922320641365,77.78922320641362,3,20,0
5,386.7788612739727,74.37886127397269,3,25,0
6,386.8297314777567,75.3297314777567,3,30,0
7,393.8582240098799,74.75822400987991,3,35,0
8,396.2066389107805,84.60663891078046,3,40,0
9,398.6543052742272,79.55430527422718,3,45,0
10,386.53897722576687,74.93897722576688,3,50,0
11,381.8170211439377,69.41702114393767,3,55,0
12,381.2021855024999,69.70218550249993,3,60,0
13,375.4376169127855,67.33761691278545,5,0,1
14,406.822831592491,77.82283159249103,7,5,1
15,352.6288759223492,66.0288759223492,3,10,1
16,353.64623720411447,69.74623720411448,3,15,1
17,358.0139859183027,58.313985918302656,4,20,1
18,360.7022945125247,77.0022945125247,3,25,1
19,371.4367279170315,85.93672791703146,3,30,1
20,368.0021742377579,79.30217423775794,3,35,1
21,345.47203658666695,56.972036586666974,3,40,1
22,336.5381074345578,53.13810743455775,3,45,1
23,345.0490292772202,61.04902927722022,3,50,1
24,354.1947989733309,67.69479897333085,3,55,1
25,367.86935534701627,87.36935534701627,2,60,1
26,397.7311198816335,70.63111988163347,7,0,2
27,386.9852097437689,98.88520974376885,3,5,2
28,349.9261144243861,66.42611442438613,3,10,2
29,352.85004778867483,66.75004778867478,3,15,2
30,336.18326617268366,50.38326617268366,3,20,2
31,337.60149810833127,53.10149810833124,3,25,2
32,337.84703120292374,51.447031202923796,3,30,2
33,355.8986908112388,81.29869081123883,2,35,2
34,337.84703120292374,51.447031202923796,3,40,2
35,355.8986908112388,81.29869081123883,2,45,2
36,355.8986908112388,81.29869081123883,2,50,2
37,361.23756105046505,86.63756105046508,2,55,2
38,343.83999702821836,56.93999702821834,3,60,2
39,400.9577620269421,75.75776202694212,8,0,3
40,357.30367964225786,71.20367964225791,4,5,3
41,371.49042920836644,98.19042920836645,3,10,3
42,337.90936562357956,54.909365623579575,4,15,3
43,321.890822158256,58.49082215825604,2,20,3
44,319.5940415964967,47.69404159649666,3,25,3
45,333.45944093209744,60.05944093209746,3,30,3
46,333.25365028774286,62.15365028774284,3,35,3
47,323.16100411987793,58.86100411987795,2,40,3
48,322.3406486422301,51.44064864223016,3,45,3
49,323.16100411987793,58.86100411987795,2,50,3
50,321.890822158256,58.49082215825604,2,55,3
51,333.240076612934,57.540076612934016,3,60,3
52,394.9177719584234,66.11777195842338,5,0,0
53,404.8244229445133,96.92442294451331,3,5,0
54,387.2834202865593,80.18342028655927,3,10,0
55,396.1410385514397,78.7410385514397,4,15,0
56,387.0215666363431,80.42156663634304,3,20,0
57,418.2563317530427,102.75633175304266,4,25,0
58,395.1988662958568,73.29886629585683,4,30,0
59,377.3370130758819,69.2370130758819,3,35,0
60,413.9779125707348,106.8779125707348,3,40,0
61,431.41935838919824,124.51935838919826,3,45,0
62,376.386892542678,68.48689254267806,3,50,0
63,378.4451545241536,70.54515452415365,3,55,0
64,386.01805474238154,74.81805474238153,3,60,0
65,425.47764777613133,80.77764777613132,8,0,1
66,352.87914155796295,57.77914155796294,4,5,1
67,388.0402724246492,78.5402724246492,5,10,1
68,351.19639590545717,62.99639590545715,3,15,1
69,338.51557940104703,53.81557940104702,3,20,1
70,358.0675249375447,80.66752493754473,2,25,1
71,358.0675249375447,80.66752493754473,2,30,1
72,358.5675249375447,80.66752493754473,2,35,1
73,358.0923551749752,80.19235517497523,2,40,1
74,358.5675249375447,80.66752493754473,2,45,1
75,358.0675249375447,80.66752493754473,2,50,1
76,358.0923551749752,80.19235517497523,2,55,1
77,357.5923551749752,80.19235517497523,2,60,1
78,347.1704440140588,61.37044401405877,3,0,2
79,341.33509089257376,56.335090892573746,3,5,2
80,345.5401795778633,62.040179577863285,3,10,2
81,377.5821673947021,89.8821673947021,3,15,2
82,349.90914176466157,64.7091417646616,3,20,2
83,341.33509089257376,56.335090892573746,3,25,2
84,359.59751158673225,71.99751158673226,3,30,2
85,343.92014884077463,57.02014884077465,3,35,2
86,336.4837220241292,50.18372202412914,3,40,2
87,364.920581725843,89.82058172584303,2,45,2
88,337.1629790220451,51.36297902204509,3,50,2
89,353.8343821566757,67.73438215667565,3,55,2
90,337.31058021743445,51.610580217434446,3,60,2
91,338.2339495986933,57.433949598693275,4,0,3
92,333.6099808291602,52.90998082916019,4,5,3
93,350.3950316897162,55.69503168971614,5,10,3
94,343.14773800927924,72.34773800927924,3,15,3
95,321.7075899694256,50.30758996942561,3,20,3
96,323.16100411987793,58.86100411987795,2,25,3
97,330.81632777243624,60.01632777243623,3,30,3
98,322.2888699646174,48.58886996461738,3,35,3
99,330.8818426919779,55.68184269197792,3,40,3
100,334.8192576569527,74.21925765695266,2,45,3
101,323.16100411987793,58.86100411987795,2,50,3
102,323.16100411987793,58.86100411987795,2,55,3
103,323.16100411987793,58.86100411987795,2,60,3
104,412.86937146986173,76.96937146986177,6,0,0
105,373.5141547889817,67.61415478898178,3,5,0
106,373.3141547889818,67.61415478898178,3,10,0
107,373.59891682075056,67.89891682075057,3,15,0
108,392.7147424420756,77.01474244207559,4,20,0
109,394.6800781257192,67.78007812571917,5,25,0
110,373.34959631306657,67.64959631306658,3,30,0
111,396.890135237996,71.09013523799598,5,35,0
112,373.5539814975085,67.85398149750854,3,40,0
113,373.5141547889817,67.61415478898178,3,45,0
114,383.41045591970226,67.3104559197022,4,50,0
115,387.70118134615325,80.80118134615319,3,55,0
116,372.87344433006206,67.17344433006208,3,60,0
117,375.312058778216,80.81205877821601,4,0,1
118,343.7021847671052,60.60218476710524,3,5,1
119,363.99904155573944,81.19904155573944,3,10,1
120,358.4420583190448,63.84205831904478,4,15,1
121,363.3847051575641,80.58470515756414,3,20,1
122,342.2571736977937,58.8571736977937,3,25,1
123,343.5209006994639,60.42090069946388,3,30,1
124,357.29505131325266,74.4950513132527,3,35,1
125,332.7310802722456,48.73108027224562,3,40,1
126,363.99904155573944,81.19904155573944,3,45,1
127,345.7695837256747,61.76958372567469,3,50,1
128,344.59213810713743,59.79213810713742,3,55,1
129,339.56433444233807,56.26433444233803,3,60,1
130,365.6355288163853,50.23552881638537,6,0,2
131,366.1093906001752,70.5093906001752,4,5,2
132,347.2963688233133,58.59636882331332,3,10,2
133,346.15541787440463,61.45541787440464,3,15,2
134,367.04029119067656,89.84029119067651,2,20,2
135,339.6942679089943,51.294267908994286,3,25,2
136,344.7991955223674,57.89919552236744,3,30,2
137,353.1424897162957,69.44248971629568,3,35,2
138,340.66169936244125,56.261699362441306,3,40,2
139,386.9394496522325,103.43944965223247,3,45,2
140,369.75752750833726,92.55752750833723,2,50,2
141,369.75752750833726,92.55752750833723,2,55,2
142,367.04029119067656,89.84029119067651,2,60,2
143,344.41920396691427,71.11920396691426,3,0,3
144,346.2360199834812,61.83601998348121,4,5,3
145,332.28562425946757,56.58562425946758,3,10,3
146,368.37162588713255,87.27162588713252,2,15,3
147,346.11245269607593,75.91245269607589,3,20,3
148,389.12209495136665,103.32209495136664,4,25,3
149,329.4517540425028,58.75175404250275,3,30,3
150,323.16100411987793,58.86100411987795,2,35,3
151,321.890822158256,58.49082215825604,2,40,3
152,345.026055936153,65.52605593615299,3,45,3
153,321.890822158256,58.49082215825604,2,50,3
154,323.16100411987793,58.86100411987795,2,55,3
155,329.5533382520424,58.85333825204241,3,60,3
156,416.2331970998945,69.73319709989445,7,0,0
157,373.5141547889817,67.61415478898178,3,5,0
158,383.7131287921575,78.01312879215749,3,10,0
159,407.0600972445536,68.26009724455369,6,15,0
160,422.23913884901515,86.33913884901514,6,20,0
161,378.44969171411907,72.54969171411908,3,25,0
162,373.58639610146133,67.88639610146133,3,30,0
163,372.87344433006206,67.17344433006208,3,35,0
164,373.5852802550773,67.88528025507732,3,40,0
165,393.0359480265248,87.3359480265248,3,45,0
166,372.87344433006206,67.17344433006208,3,50,0
167,373.5852802550773,67.88528025507732,3,55,0
168,382.26625505857675,74.36625505857675,3,60,0
169,342.29487829278514,57.99487829278515,3,0,1
170,350.9551403400413,56.05514034004132,4,5,1
171,349.2890520376467,55.78905203764666,4,10,1
172,343.4538572952365,60.4538572952365,3,15,1
173,347.54706565073207,62.947065650732036,3,20,1
174,335.77151202694506,50.871512026945084,3,25,1
175,352.09248326750645,65.59248326750645,3,30,1
176,333.1327767113236,48.43277671132358,3,35,1
177,358.98132035610496,74.08132035610497,3,40,1
178,382.5246006133914,99.12460061339141,3,45,1
179,358.31936821590523,73.3193682159052,3,50,1
180,344.4396127216778,61.03961272167783,3,55,1
181,357.09688469661637,73.09688469661637,3,60,1
182,373.25352868361097,68.55352868361096,5,0,2
183,345.23301072875154,59.03301072875151,3,5,2
184,357.6379251938817,60.337925193881695,4,10,2
185,358.4110883813392,60.1110883813392,4,15,2
186,364.920581725843,89.82058172584303,2,20,2
187,339.49185787703107,54.491857877031066,3,25,2
188,349.473604531192,64.77360453119198,3,30,2
189,362.3582402922568,77.6582402922568,3,35,2
190,364.920581725843,89.82058172584303,2,40,2
191,355.8986908112388,81.29869081123883,2,45,2
192,341.8044218197157,55.70442181971568,3,50,2
193,366.732072604283,91.63207260428304,2,55,2
194,361.23756105046505,86.63756105046508,2,60,2
195,348.7735605780596,78.07356057805956,3,0,3
196,360.4069905724942,56.50699057249418,6,5,3
197,322.6643711092184,51.86437110921842,3,10,3
198,378.74962343701065,97.64962343701063,2,15,3
199,379.608681670754,107.808681670754,3,20,3
200,334.8192576569527,74.21925765695266,2,25,3
201,339.40420932623147,58.3042093262315,3,30,3
202,352.00865021934317,76.00865021934314,3,35,3
203,323.16100411987793,58.86100411987795,2,40,3
204,321.890822158256,58.49082215825604,2,45,3
205,323.16100411987793,58.86100411987795,2,50,3
206,318.33766373042135,45.63766373042135,3,55,3
207,323.16100411987793,58.86100411987795,2,60,3
208,-10.0,0.0,-2,0,0
209,416.56736835914893,101.76736835914892,4,5,0
210,387.7014194424969,71.80141944249691,4,10,0
211,427.94665821199806,91.44665821199803,6,15,0
212,382.30038703738035,66.40038703738036,4,20,0
213,384.1645249946938,66.7645249946938,4,25,0
214,398.39952013401296,71.29952013401297,4,30,0
215,408.6680453912599,92.46804539125986,4,35,0
216,400.60563671416884,72.8056367141689,4,40,0
217,384.7177361687766,68.71773616877655,4,45,0
218,406.2187502984986,79.11875029849858,5,50,0
219,381.96337544774036,66.26337544774037,4,55,0
220,427.5757742279315,89.07577422793149,5,60,0
221,534.1347726081716,95.23477260817165,17,0,1
222,379.3697229321094,64.56972293210937,6,5,1
223,350.0872232910164,67.38722329101638,3,10,1
224,354.36100945270005,68.66100945270009,3,15,1
225,371.8592024767239,87.15920247672389,3,20,1
226,360.3266546543429,77.02665465434289,3,25,1
227,347.80010876350843,63.90010876350843,3,30,1
228,350.0872232910164,67.38722329101638,3,35,1
229,335.7715120269451,50.8715120269451,3,40,1
230,337.83144965481125,54.73144965481124,3,45,1
231,341.1363396446195,56.836339644619486,3,50,1
232,344.79136935731236,61.19136935731238,3,55,1
233,357.5923551749752,80.19235517497523,2,60,1
234,378.4157738608441,64.71577386084415,6,0,2
235,373.9645201477011,89.36452014770106,3,5,2
236,383.92750855806094,89.22750855806092,4,10,2
237,354.2727857654958,66.77278576549581,3,15,2
238,351.8582628203899,65.35826282038985,3,20,2
239,352.18215472851296,66.98215472851294,3,25,2
240,372.88756693750395,85.58756693750394,3,30,2
241,344.5527763680551,60.75277636805514,3,35,2
242,344.6032929518851,60.903292951885135,3,40,2
243,355.8986908112388,81.29869081123883,2,45,2
244,353.8303314049433,66.73033140494337,3,50,2
245,355.8986908112388,81.29869081123883,2,55,2
246,356.08103286187185,72.48103286187184,3,60,2
247,338.6735605780596,78.07356057805957,2,0,3
248,364.51244857500257,74.91244857500254,3,5,3
249,328.3162919661852,57.516291966185186,3,10,3
250,322.9286710771178,51.82867107711782,3,15,3
251,354.7686149125999,84.06861491259988,3,20,3
252,349.2909372874175,79.79093728741748,3,25,3
253,329.78512353928187,56.78512353928187,3,30,3
254,345.169099237203,75.56909923720298,3,35,3
255,331.93196170920345,58.331961709203476,3,40,3
256,333.9814347088307,57.68143470883069,3,45,3
257,328.61650585819814,52.81650585819812,3,50,3
258,323.2055828622637,52.40558286226376,3,55,3
259,378.7496234370107,97.64962343701067,2,60,3
260,388.7443797301414,71.74437973014136,4,0,0
261,409.39758371296034,78.09758371296033,5,5,0
262,389.6561731817192,72.65617318171918,4,10,0
263,376.386892542678,68.48689254267806,3,15,0
264,379.95711663455955,73.0571166345595,3,20,0
265,390.5090052177693,82.60900521776935,3,25,0
266,386.3462940238407,79.64629402384071,3,30,0
267,381.65347785922927,75.65347785922927,3,35,0
268,378.8608284862772,71.96082848627722,3,40,0
269,377.09872846769326,69.19872846769326,3,45,0
270,381.44727059659584,69.0472705965958,3,50,0
271,377.6386294260551,69.7386294260551,3,55,0
272,379.9617670253445,68.76176702534453,3,60,0
273,466.8642482305058,72.9642482305058,13,0,1
274,364.2020953195437,82.40209531954368,3,5,1
275,355.97657204612966,72.67657204612965,3,10,1
276,361.8210373223436,69.72103732234368,4,15,1
277,354.62567426232476,71.82567426232477,3,20,1
278,373.9583131414747,92.05831314147477,3,25,1
279,356.33385710478296,73.33385710478296,3,30,1
280,356.12919037945176,74.02919037945179,3,35,1
281,346.468268586683,60.56826858668297,3,40,1
282,335.7293665292217,51.72936652922168,3,45,1
283,364.8391069091838,82.5391069091838,3,50,1
284,354.3840391203537,71.38403912035368,3,55,1
285,358.14797393616436,73.14797393616439,3,60,1
286,356.08159126149735,62.38159126149739,4,0,2
287,349.5768823313399,65.17688233133995,3,5,2
288,364.52743821404323,78.32743821404318,3,10,2
289,446.8372093936868,136.93720939368677,5,15,2
290,390.1395238127362,95.73952381273618,4,20,2
291,369.12204421889464,82.72204421889467,3,25,2
292,384.8118429260617,90.21184292606165,4,30,2
293,375.085866105342,90.48586610534204,3,35,2
294,400.8354782963095,105.23547829630948,4,40,2
295,336.54501778787875,52.04501778787876,3,45,2
296,371.56275537884596,76.56275537884594,4,50,2
297,338.452526575189,49.85252657518902,3,55,2
298,367.04029119067656,89.84029119067651,2,60,2
299,363.46672429656223,82.0667242965622,4,0,3
300,354.45103330145554,62.851033301455516,5,5,3
301,328.34479014813286,53.54479014813286,3,10,3
302,338.1546130341509,61.05461303415092,3,15,3
303,317.4147064006868,45.41470640068677,3,20,3
304,318.36062676954975,46.76062676954975,3,25,3
305,362.6926767165031,90.29267671650311,3,30,3
306,323.16100411987793,58.86100411987795,2,35,3
307,323.16100411987793,58.86100411987795,2,40,3
308,318.7643126890666,48.664312689066605,3,45,3
309,334.8192576569527,74.21925765695266,2,50,3
310,321.890822158256,58.49082215825604,2,55,3
311,321.890822158256,58.49082215825604,2,60,3
312,448.249770451886,122.749770451886,5,0,0
313,387.302833479796,81.30283347979598,3,5,0
314,394.7058626605087,89.1058626605087,3,10,0
315,386.5915145664677,68.69151456646773,4,15,0
316,391.1504958323439,85.75049583234393,3,20,0
317,409.41059210220095,102.110592102201,3,25,0
318,400.62126460283866,95.82126460283865,3,30,0
319,401.83314875963555,94.53314875963561,3,35,0
320,381.65347785922927,75.65347785922926,3,40,0
321,389.67192865682773,84.27192865682773,3,45,0
322,382.77988493648996,76.17988493648994,3,50,0
323,394.88874648295393,90.48874648295393,3,55,0
324,381.9877879692505,73.88778796925055,3,60,0
325,345.1951540572759,63.79515405727586,3,0,1
326,349.6295839217013,68.2295839217013,3,5,1
327,357.00218178796115,64.10218178796116,4,10,1
328,343.0850076207402,59.58500762074023,3,15,1
329,339.9612428240199,58.46124282401993,3,20,1
330,343.0850076207402,59.58500762074023,3,25,1
331,347.810485895301,63.91048589530093,3,30,1
332,343.165767699844,59.56576769984403,3,35,1
333,348.7308994820013,77.23089948200129,2,40,1
334,340.8029628766206,56.80296287662061,3,45,1
335,348.7308994820013,77.23089948200129,2,50,1
336,340.1278134812694,56.12781348126941,3,55,1
337,348.7308994820013,77.23089948200129,2,60,1
338,369.5393362668859,65.93933626688593,5,0,2
339,343.7704508890756,56.670450889075596,3,5,2
340,349.76948957284856,55.069489572848596,4,10,2
341,356.5372948539514,70.83729485395139,3,15,2
342,364.8010631083682,68.50106310836826,3,20,2
343,374.8877828580378,93.68778285803776,2,25,2
344,369.75752750833726,92.55752750833723,2,30,2
345,343.7704508890756,56.670450889075596,3,35,2
346,333.59777526065585,47.79777526065583,3,40,2
347,355.8986908112388,81.29869081123883,2,45,2
348,367.04029119067656,89.84029119067651,2,50,2
349,365.8618906426613,91.26189064266133,2,55,2
350,386.48361060046506,111.88361060046506,2,60,2
351,378.91460520535975,57.91460520535979,8,0,3
352,327.1312283999356,51.53122839993562,3,5,3
353,344.1316156988683,60.03161569886829,4,10,3
354,331.2280362948055,56.92803629480554,3,15,3
355,323.16100411987793,58.86100411987795,2,20,3
356,335.65166845063743,60.85166845063741,3,25,3
357,323.16100411987793,58.86100411987795,2,30,3
358,332.89918649910317,57.19918649910318,3,35,3
359,334.8192576569527,74.21925765695266,2,40,3
360,323.16100411987793,58.86100411987795,2,45,3
361,325.8782060087971,55.4782060087971,3,50,3
362,323.4289752944365,52.82897529443646,3,55,3
363,321.6075191619259,48.80751916192591,3,60,3
364,426.9701533290771,71.57015332907707,8,0,0
365,402.6170674309331,76.71706743093313,5,5,0
366,393.4754160972696,78.17541609726959,4,10,0
367,379.78596742542254,72.38596742542249,3,15,0
368,392.20805343406107,87.40805343406109,3,20,0
369,392.85076979309395,87.45076979309391,3,25,0
370,373.59372349473085,68.29372349473087,3,30,0
371,417.80891925985657,102.80891925985657,3,35,0
372,384.50105985174093,78.00105985174096,3,40,0
373,378.5771974626597,73.67719746265963,3,45,0
374,374.1773338317682,69.37733383176817,3,50,0
375,373.1009500786025,68.30095007860254,3,55,0
376,373.59372349473085,68.29372349473086,3,60,0
377,384.0306661271783,58.430666127178284,7,0,1
378,350.7054155070841,55.705415507084155,4,5,1
379,382.44619247161506,88.3461924716151,4,10,1
380,360.95960101026355,74.65960101026354,3,15,1
381,349.7881689140147,66.78816891401475,3,20,1
382,366.9044993495878,93.90449934958778,2,25,1
383,352.0398108107299,68.73981081072986,3,30,1
384,340.1278134812694,56.12781348126941,3,35,1
385,365.09300847114775,92.09300847114778,2,40,1
386,349.7881689140147,66.78816891401475,3,45,1
387,365.09300847114775,92.09300847114778,2,50,1
388,346.70006203925897,60.800062039258954,3,55,1
389,358.0923551749752,80.19235517497523,2,60,1
390,369.56956163604707,54.16956163604707,6,0,2
391,373.35891745362335,78.45891745362333,4,5,2
392,346.089518506611,60.38951850661101,3,10,2
393,406.76309146170905,72.56309146170906,7,15,2
394,353.23926686922175,56.23926686922178,4,20,2
395,374.8877828580378,93.68778285803776,2,25,2
396,371.2313916097437,73.03139160974368,4,30,2
397,352.4495919372291,66.94959193722914,3,35,2
398,340.82939855654433,55.62939855654437,3,40,2
399,355.8986908112388,81.29869081123883,2,45,2
400,384.9117583207185,92.91175832071848,3,50,2
401,355.8986908112388,81.29869081123883,2,55,2
402,355.8986908112388,81.29869081123883,2,60,2
403,417.9439451842269,84.24394518422693,9,0,3
404,362.1908599173672,88.89085991736724,3,5,3
405,361.5205122592347,80.42051225923464,4,10,3
406,378.3692710238521,108.76927102385206,3,15,3
407,329.8708778577449,55.07087785774492,3,20,3
408,342.8431232370898,65.84312323708983,3,25,3
409,338.67356057805955,78.07356057805956,2,30,3
410,323.16100411987793,58.86100411987795,2,35,3
411,317.26667673777933,45.06667673777933,3,40,3
412,338.67356057805955,78.07356057805956,2,45,3
413,331.38199151129174,67.08199151129172,2,50,3
414,323.16100411987793,58.86100411987795,2,55,3
415,323.16100411987793,58.86100411987795,2,60,3
416,418.0526108861234,99.95261088612332,4,0,0
417,457.6781938963948,123.77819389639484,5,5,0
418,431.574161990368,89.87416199036792,6,10,0
419,403.9183426379101,73.1183426379101,5,15,0
420,546.3061598969587,173.70615989695864,8,20,0
421,387.2590166962183,68.3590166962183,4,25,0
422,404.26078815247513,97.46078815247515,3,30,0
423,404.10019310580697,99.50019310580694,3,35,0
424,409.04244927215916,82.94244927215918,5,40,0
425,397.89453804424403,91.39453804424403,3,45,0
426,397.89453804424403,91.39453804424403,3,50,0
427,397.89453804424403,91.39453804424403,3,55,0
428,404.04193734873127,92.54193734873125,3,60,0
429,364.0979872706987,72.2979872706987,4,0,1
430,358.123022839994,65.823022839994,4,5,1
431,353.75857569321704,59.25857569321701,4,10,1
432,336.11058089369305,54.01058089369303,3,15,1
433,348.8973604383343,65.19736043833436,3,20,1
434,343.00235727064137,60.4023572706414,3,25,1
435,348.06118101292327,66.16118101292327,3,30,1
436,347.25042699970857,64.35042699970855,3,35,1
437,374.39577308093976,96.49577308093981,2,40,1
438,348.7308994820013,77.23089948200129,2,45,1
439,357.5923551749752,80.19235517497523,2,50,1
440,339.8309607160089,56.530960716008906,3,55,1
441,347.14006306197086,76.14006306197084,2,60,1
442,347.6688538857193,53.86885388571929,4,0,2
443,412.65974228406554,118.45974228406553,4,5,2
444,351.39562226947874,57.59562226947873,4,10,2
445,393.74799303259346,84.44799303259346,5,15,2
446,354.17024635309787,61.87024635309787,3,20,2
447,355.8986908112388,81.29869081123883,2,25,2
448,336.4435096181447,50.143509618144655,3,30,2
449,332.3465930402806,46.54659304028061,3,35,2
450,348.5076569640057,62.8076569640057,3,40,2
451,355.8986908112388,81.29869081123883,2,45,2
452,334.64251043303136,48.84251043303138,3,50,2
453,361.23756105046505,86.63756105046508,2,55,2
454,355.8986908112388,81.29869081123883,2,60,2
455,357.65698916330473,55.156989163304715,6,0,3
456,330.90805450872017,48.008054508720114,4,5,3
457,323.16100411987793,58.86100411987795,2,10,3
458,324.18952869223597,52.189528692235946,3,15,3
459,331.88482782000216,62.28482782000214,3,20,3
460,322.0204374713945,50.72043747139445,3,25,3
461,323.16100411987793,58.86100411987795,2,30,3
462,327.6625422798994,55.36254227989937,3,35,3
463,352.2763004696822,82.67630046968219,3,40,3
464,321.890822158256,58.49082215825604,2,45,3
465,337.3101927846758,65.71019278467577,3,50,3
466,343.04024504836644,82.44024504836644,2,55,3
467,325.9756245878099,62.575624587809926,2,60,3
468,419.78555438624505,113.28555438624502,3,0,0
469,382.5433291982955,75.84332919829552,3,5,0
470,382.5433291982955,75.8433291982955,3,10,0
471,377.0522510441131,68.95225104411315,3,15,0
472,377.0522510441131,68.95225104411315,3,20,0
473,376.386892542678,68.48689254267806,3,25,0
474,377.0522510441131,68.95225104411315,3,30,0
475,377.0522510441131,68.95225104411315,3,35,0
476,377.0522510441131,68.95225104411315,3,40,0
477,376.386892542678,68.48689254267806,3,45,0
478,377.0522510441131,68.95225104411315,3,50,0
479,376.386892542678,68.48689254267806,3,55,0
480,376.386892542678,68.48689254267806,3,60,0
481,369.8984103518466,68.69841035184662,5,0,1
482,398.55619023149114,112.85619023149114,3,5,1
483,361.21608583805073,77.91608583805073,3,10,1
484,354.8337646776612,71.83376467766116,3,15,1
485,388.7295426489882,80.92954264898823,4,20,1
486,366.4044993495878,93.90449934958778,2,25,1
487,346.5562191904179,63.156219190417886,3,30,1
488,345.1951540572758,63.79515405727576,3,35,1
489,357.5923551749752,80.19235517497523,2,40,1
490,357.41706323401064,83.31706323401065,2,45,1
491,357.41706323401064,83.31706323401065,2,50,1
492,337.0407595247176,51.840759524717605,3,55,1
493,344.79136935731236,61.19136935731238,3,60,1
494,405.8784858873231,91.4784858873231,6,0,2
495,385.28531171775217,97.98531171775218,3,5,2
496,365.26532401008404,69.36532401008407,4,10,2
497,355.8986908112388,81.29869081123883,2,15,2
498,346.0065278691265,61.00652786912651,3,20,2
499,370.2594519650693,95.15945196506928,2,25,2
500,364.920581725843,89.82058172584303,2,30,2
501,355.8986908112388,81.29869081123883,2,35,2
502,359.9212217824221,74.42122178242212,3,40,2
503,373.42894741689173,86.12894741689179,3,45,2
504,355.8986908112388,81.29869081123883,2,50,2
505,364.920581725843,89.82058172584303,2,55,2
506,370.2594519650693,95.15945196506928,2,60,2
507,330.3900707939813,48.99007079398123,4,0,3
508,348.4260104971171,53.62601049711708,5,5,3
509,365.1657036634714,87.36570366347135,3,10,3
510,365.1657036634714,87.36570366347135,3,15,3
511,370.935372425426,97.635372425426,3,20,3
512,341.5729412754679,65.4729412754679,3,25,3
513,342.55929222314467,72.95929222314471,3,30,3
514,370.93537242542607,97.63537242542603,3,35,3
515,318.29293536821456,48.19293536821455,3,40,3
516,325.3577230729883,55.75772307298831,3,45,3
517,334.8192576569527,74.21925765695266,2,50,3
518,331.84207681476835,60.04207681476831,3,55,3
519,321.890822158256,58.49082215825604,2,60,3
